0
2
3
6
7
8
9
10
11
14
16
17
18
19
20
21
22
29
30
36
37
42
45
52
53
58
61
62
66
70
71
72
73
77
78
79
81
84
87
88
93
94
95
97
105
107
109
110
125
131
133
137
138
139
140
146
147
151
152
158
159
160
162
163
164
166
168
170
172
174
175
179
181
188
189
190
193
195
196
197
199
201
202
207
208
210
213
214
222
225
240
241
245
248
253
258
259
262
266
268
269
274
276
278
279
280
281
282
284
286
288
289
291
293
294
297
298
299
300
302
303
304
305
308
313
315
317
319
320
323
327
332
333
334
335
345
347
348
352
353
354
358
359
361
363
364
365
366
369
370
371
376
378
382
383
386
388
389
392
393
394
396
397
399
400
403
404
405
406
407
414
421
423
424
429
430
431
438
439
443
445
446
447
449
451
452
453
454
455
458
460
464
465
468
470
471
472
477
480
485
486
490
491
492
493
494
495
496
505
506
507
509
511
513
516
519
522
523
526
531
541
543
545
547
551
552
553
556
557
558
562
564
565
566
568
574
577
579
585
588
591
592
594
596
599
601
602
607
609
613
619
620
621
623
625
626
627
629
631
632
633
634
635
643
644
651
652
656
657
660
661
662
663
664
667
668
669
671
674
675
676
677
688
694
697
702
704
708
709
711
716
717
718
720
723
724
725
731
732
738
739
741
742
743
748
752
756
759
762
765
767
768
772
773
776
778
780
783
786
787
795
796
797
798
799
801
803
804
811
813
814
819
820
823
824
825
826
828
830
832
834
837
838
843
844
845
848
851
853
854
858
861
863
864
866
867
868
869
870
871
872
873
874
883
885
892
893
895
896
897
899
904
905
906
907
911
912
913
914
917
918
922
923
924
925
931
934
943
946
947
949
951
955
966
969
971
972
979
981
983
986
987
990
994
995
996
998
999
